{
    "users": {
        "name": {
            "money": 100,
            "incomeStart": 0,
            "incomeCurrent": 0
        },
        "anotherTest": {
            "money": 100,
            "incomeStart": 0,
            "incomeCurrent": 0
        }
    },
    "stocks": {
        "name": {
            "cost": 10,
            "amount": 100
        },
        "anotherStock": {
            "cost": 4,
            "amount": 14
        }
        
    }
}